<?xml version="1.0" encoding="UTF-8" standalone="no"?>
<!-- Created with Inkscape (http://www.inkscape.org/) -->

<svg
   width="180.85591mm"
   height="291.70309mm"
   viewBox="0 0 180.85591 291.70309"
   version="1.1"
   id="svg420"
   inkscape:version="1.2.2 (b0a8486541, 2022-12-01)"
   sodipodi:docname="logo.fonte-branca.transparente.svg"
   xmlns:inkscape="http://www.inkscape.org/namespaces/inkscape"
   xmlns:sodipodi="http://sodipodi.sourceforge.net/DTD/sodipodi-0.dtd"
   xmlns="http://www.w3.org/2000/svg"
   xmlns:svg="http://www.w3.org/2000/svg">
  <sodipodi:namedview
     id="namedview422"
     pagecolor="#ffffff"
     bordercolor="#000000"
     borderopacity="0.25"
     inkscape:showpageshadow="2"
     inkscape:pageopacity="0.0"
     inkscape:pagecheckerboard="0"
     inkscape:deskcolor="#d1d1d1"
     inkscape:document-units="mm"
     showgrid="true"
     inkscape:zoom="0.52507035"
     inkscape:cx="-92.368575"
     inkscape:cy="440.8933"
     inkscape:window-width="1769"
     inkscape:window-height="1230"
     inkscape:window-x="119"
     inkscape:window-y="76"
     inkscape:window-maximized="0"
     inkscape:current-layer="layer1">
    <inkscape:grid
       type="xygrid"
       id="grid1098"
       originx="-14.572045"
       originy="-2.6484484" />
  </sodipodi:namedview>
  <defs
     id="defs417">
    <rect
       x="40"
       y="40"
       width="700"
       height="1040"
       id="rect1628-7-3" />
    <rect
       x="40"
       y="40"
       width="700"
       height="1040"
       id="rect1628-7-3-6" />
  </defs>
  <g
     inkscape:label="Camada 1"
     inkscape:groupmode="layer"
     id="layer1"
     transform="translate(-14.572045,-2.6484485)">
    <g
       id="galo_x5F_vectorial"
       transform="matrix(0.19192613,0,0,0.19192613,48.045522,5.317136)"
       style="fill:#ffffff">
      <linearGradient
         id="linearGradient564"
         gradientUnits="userSpaceOnUse"
         x1="301.5918"
         y1="649.06543"
         x2="228.6351"
         y2="305.83109">
        <stop
           offset="0"
           style="stop-color:#8C315F"
           id="stop548" />
        <stop
           offset="0.0342"
           style="stop-color:#92345D"
           id="stop550" />
        <stop
           offset="0.1654"
           style="stop-color:#A83D54"
           id="stop552" />
        <stop
           offset="0.3035"
           style="stop-color:#BB454B"
           id="stop554" />
        <stop
           offset="0.4487"
           style="stop-color:#CA4C41"
           id="stop556" />
        <stop
           offset="0.604"
           style="stop-color:#D65039"
           id="stop558" />
        <stop
           offset="0.7764"
           style="stop-color:#DD5434"
           id="stop560" />
        <stop
           offset="1"
           style="stop-color:#E05533"
           id="stop562" />
      </linearGradient>
      <path
         d="m 170.95,559.324 c 0,0 65.315,92.801 66.815,94.738 1.5,1.937 3.279,5.19 7.012,7.079 -4.355,-2.548 -5.371,-5.501 -1.512,-7.517 2.023,-1.057 41.451,-21.053 71.88,-36.604 18.781,-9.599 34.117,-17.574 35.167,-18.146 2.75,-1.5 4.238,-2.877 6.426,-5.939 2.188,-3.062 27.887,-39.873 29.512,-42.311 2.427,-3.641 2.576,-6.263 1.5,-11.563 -0.813,-4 -41.504,-204.791 -41.504,-204.791 0,0 -51.813,93.022 -53.725,96.343 -0.917,1.594 -1.709,4.344 0.416,6.719 2.125,2.375 3.625,3.62 3.625,3.62 l -31.625,7.088 -56.845,-137.844 -24.353,73.229 118.457,169.642 59.429,-64.006 c 0,0 -20.245,91.025 -21.969,98.802 -0.605,2.73 -1.43,7.14 -6.075,7.979 -14.523,2.623 -75.009,13.473 -80.675,14.438 -3.607,0.615 -5.591,0.262 -9.188,-2.156 -5.744,-3.86 -72.768,-48.8 -72.768,-48.8 z"
         id="path42"
         style="fill:#ffffff"
         inkscape:connector-curvature="0" />
      <path
         d="m 102.76,250.995 84.454,31.08 -19.084,87.162 c 0,0 -46.957,-33.424 -51.849,-36.894 -1.808,-1.282 -2.331,-2.817 -1.719,-6.563 0.762,-4.662 8.028,-45.121 8.646,-48.656 0.385,-2.203 -1.441,-3.32 -3.588,-2.213 -1.962,1.012 -39.145,20.285 -41.167,21.291 -2.214,1.102 -3.257,-0.175 -1.781,-2.906 1.25,-2.312 26.088,-42.301 26.088,-42.301 z"
         id="path44"
         inkscape:connector-curvature="0"
         style="fill:#ffffff" />
      <path
         d="m 416.53,208.019 c 1.303,-2.81 6.72,-4.56 11.345,-2.163 8.564,4.438 110.271,60.812 121.14,67.604 2.334,1.458 4.628,5.593 2.673,10.729 -4.791,12.583 -31.372,83.01 -31.372,83.01 L 367.127,437.46 346.247,334.273 Z"
         id="path46"
         inkscape:connector-curvature="0"
         style="fill:#ffffff" />
      <linearGradient
         id="linearGradient579"
         gradientUnits="userSpaceOnUse"
         x1="229.67821"
         y1="612.66022"
         x2="193.1357"
         y2="381.93939">
        <stop
           offset="0"
           style="stop-color:#A03854"
           id="stop569" />
        <stop
           offset="0.2865"
           style="stop-color:#B34149"
           id="stop571" />
        <stop
           offset="0.5863"
           style="stop-color:#C5493C"
           id="stop573" />
        <stop
           offset="0.835"
           style="stop-color:#D14F33"
           id="stop575" />
        <stop
           offset="1"
           style="stop-color:#D5502F"
           id="stop577" />
      </linearGradient>
      <path
         d="m 183.739,383.427 118.457,169.642 c 0,0 -42.228,45.432 -50.478,54.4 -1.569,1.706 -3.655,3.653 -7.677,0.949 -28.157,-18.931 -102.654,-68.956 -105.583,-70.875 -3.373,-2.209 -4.345,-5.118 -2.667,-10.125 6.542,-19.519 47.948,-143.991 47.948,-143.991 z"
         id="path59"
         style="fill:#ffffff"
         inkscape:connector-curvature="0" />
      <path
         d="m 153.925,210.929 52.321,-50.889 c 0,0 -53.337,-95.689 -55.027,-98.743 -1.693,-3.06 -4.57,-2.633 -5.766,-1.953 -14.703,8.359 -101.406,58.781 -116.596,67.994 -2.212,1.342 -1.728,4.555 -0.666,5.209 10.511,6.482 125.734,78.382 125.734,78.382 z"
         id="path61"
         inkscape:connector-curvature="0"
         style="fill:#ffffff" />
      <path
         d="m 251.677,664.563 c 0,0 -50.552,97.563 -51.677,99.938 -0.633,1.336 -1.031,2.25 -0.52,3.455 -0.23,-0.736 0.181,-1.281 1.208,-1.518 10.246,-2.36 164.111,-37.944 169.843,-39.364 3.657,-0.906 3.119,-4.022 1.237,-4.941 -8.049,-3.93 -120.091,-57.57 -120.091,-57.57 z"
         id="path63"
         inkscape:connector-curvature="0"
         style="fill:#ffffff" />
      <path
         id="polygon65"
         d="m 520.315,367.197 -81.209,37.246 45.016,58.631 z" />
      <path
         d="m 187.214,282.075 c 0,0 -51.089,233.3 -52.683,240.769 -0.897,4.205 -1.703,11.328 3.21,14.189 -3.132,-2.268 -3.247,-5.701 -2.054,-9.283 1.616,-4.852 75.186,-225.74 76.375,-229.563 0.875,-2.813 1.024,-6.375 -3.471,-8.156 -2.418,-0.958 -21.377,-7.956 -21.377,-7.956 z"
         id="path67"
         inkscape:connector-curvature="0"
         style="fill:#ffffff" />
      <path
         d="m 26.875,133.094 c 0.616,5.471 8.988,80.047 9.781,87.219 0.487,4.404 1.487,7.064 5.331,8.439 11.551,4.132 152.193,55.777 166.294,61.154 3.693,1.408 4.844,3.844 3.781,8.281 1.375,-3.656 0.797,-7.475 -0.375,-11.25 -2.281,-7.346 -11.024,-36.233 -13.156,-43.25 -1.365,-4.492 -2.923,-6.536 -6.35,-8.709 C 159.118,214.009 35.927,137.236 28.37,132.674 c -1.266,-0.764 -1.346,-2.908 -0.465,-4.455 -0.936,1.25 -1.311,2.375 -1.03,4.875 z"
         id="path69"
         inkscape:connector-curvature="0"
         style="fill:#ffffff" />
      <path
         d="m 145.804,59.174 c 2.758,-1.424 5.071,-1.611 8.071,-0.424 3,1.187 117.063,54.875 120.438,56.563 3.375,1.688 4.813,4.25 4.25,8.25 C 278,127.563 264.125,264 264.125,264 c 0,0 -111.594,-200.469 -112.906,-202.719 -1.312,-2.25 -3.344,-2.828 -5.415,-2.107 z"
         id="path71"
         inkscape:connector-curvature="0"
         style="fill:#ffffff" />
      <path
         d="m 323.875,227.097 c 17.292,-4.388 87.376,-21.097 92.751,-22.222 5.375,-1.125 7.749,-0.833 11.249,0.917 -3.791,-1.584 -9.249,-1.584 -11.457,2.417 -2.3,4.168 -122.001,219.208 -123.501,221.708 -1.5,2.5 -1.917,4.5 -0.167,7.25 -2.875,-3.583 -4.375,-5.917 -6.375,-13.542 C 284.375,416 263.875,338.25 263,334 c -0.875,-4.25 -0.875,-7.5 1.5,-11.625 2.375,-4.125 50.875,-86.625 52.625,-89.75 1.75,-3.125 3.186,-4.624 6.75,-5.528 z"
         id="path73"
         inkscape:connector-curvature="0"
         style="fill:#ffffff" />
      <linearGradient
         id="linearGradient601"
         gradientUnits="userSpaceOnUse"
         x1="547.47852"
         y1="522.36432"
         x2="441.2959"
         y2="338.45059">
        <stop
           offset="0"
           style="stop-color:#99365A"
           id="stop589" />
        <stop
           offset="0.1343"
           style="stop-color:#A53C54"
           id="stop591" />
        <stop
           offset="0.3182"
           style="stop-color:#B2434E"
           id="stop593" />
        <stop
           offset="0.5145"
           style="stop-color:#BC4848"
           id="stop595" />
        <stop
           offset="0.7298"
           style="stop-color:#C24B44"
           id="stop597" />
        <stop
           offset="1"
           style="stop-color:#C44C42"
           id="stop599" />
      </linearGradient>
      <path
         d="m 550.834,275.208 c 1.375,1.667 1.834,3.25 2.209,6.875 0.375,3.625 13.002,173.967 13.416,179.125 0.342,4.253 1.03,7.792 -3.23,11.551 -5.48,4.834 -125.395,112.908 -125.395,112.908 0,0 111.34,-294.847 114,-302.042 0.96,-2.596 0.625,-6.042 -1,-8.417 z"
         id="path88"
         style="fill:#ffffff"
         inkscape:connector-curvature="0" />
      <path
         d="m 76,295.667 c 0.208,1.125 1.064,1.264 2.958,0.292 19.645,-10.089 31.871,-16.511 40.542,-21 2.488,-1.288 4.07,0.156 3.708,2.167 -1.33,7.396 -2.787,15.518 -2.787,15.518 0,0 -31.903,4.651 -39.879,5.691 -1.917,0.248 -4.917,0.082 -4.542,-2.668 z"
         id="path90"
         inkscape:connector-curvature="0"
         style="fill:#ffffff" />
      <linearGradient
         id="linearGradient615"
         gradientUnits="userSpaceOnUse"
         x1="311.30371"
         y1="601.13867"
         x2="295.21851"
         y2="499.58041">
        <stop
           offset="0"
           style="stop-color:#B05772"
           id="stop605" />
        <stop
           offset="0.1035"
           style="stop-color:#B75A6E"
           id="stop607" />
        <stop
           offset="0.3032"
           style="stop-color:#C05D69"
           id="stop609" />
        <stop
           offset="0.5523"
           style="stop-color:#C55E66"
           id="stop611" />
        <stop
           offset="1"
           style="stop-color:#C65F65"
           id="stop613" />
      </linearGradient>
      <path
         d="m 244.406,608.563 c 2,1.406 4.438,1.844 6.969,-0.813 2.654,-2.785 110.25,-118.688 110.25,-118.688 0,0 -21.688,97.688 -22.438,100.875 -0.75,3.187 -1.594,5.188 -5.75,5.938 -3.873,0.699 -75.232,13.58 -81.25,14.625 -3.422,0.595 -5.349,-0.31 -7.781,-1.937 z"
         id="path103"
         style="fill:#ffffff"
         inkscape:connector-curvature="0" />
      <path
         d="m 315.146,617.021 c 0,0 51.833,91.417 57.609,102.422 1.664,3.17 1.651,5.541 -0.729,7.01 1.567,-0.891 1.786,-3.349 -0.464,-4.432 -2.25,-1.083 -121.603,-58.295 -124.5,-59.666 -6.208,-2.938 -8.445,-6.391 -3.458,-8.917 5.627,-2.85 71.542,-36.417 71.542,-36.417 z"
         id="path105"
         inkscape:connector-curvature="0"
         style="fill:#ffffff" />
      <path
         d="m 200.854,768.771 c -1.667,-0.083 -2.071,-1.891 -0.271,-2.313 3.705,-0.868 169.937,-39.376 169.937,-39.376 0,0 8.063,33.313 8.938,38.042 0.248,1.342 -0.021,2.479 -2.146,2.479 -2.125,0 -176.458,1.168 -176.458,1.168 z"
         id="path107"
         inkscape:connector-curvature="0"
         style="fill:#ffffff" />
    </g>
    <g
       aria-label="Ubucon
Portugal
2023"
       transform="matrix(0.1984375,0,0,0.1984375,27.114604,162.52163)"
       id="text1626"
       style="font-size:146.667px;font-family:Ubuntu;-inkscape-font-specification:'Ubuntu, @wght=800';font-variation-settings:'wght' 800;text-align:center;white-space:pre;shape-inside:url(#rect1628-7-3-6);display:inline;fill:#ffffff;stroke-width:0.918425">
      <path
         d="m 169.92594,182.32574 q -10.56003,0 -17.60004,-3.81334 -7.04002,-3.96001 -10.70669,-11.29336 -3.52001,-7.33335 -3.52001,-17.89337 V 78.632168 h 20.82671 v 69.080162 q 0,8.65335 2.49334,12.61336 2.64001,3.81334 8.50669,3.81334 5.86668,0 8.36002,-3.81334 2.64,-3.96001 2.64,-12.61336 V 78.632168 h 20.82672 v 70.693502 q 0,10.56002 -3.52001,17.89337 -3.52001,7.33335 -10.70669,11.29336 -7.04002,3.81334 -17.60004,3.81334 z"
         id="path1580" />
      <path
         d="m 266.87294,181.73907 q -4.40001,0 -8.50669,-0.44 -4.10668,-0.29333 -8.21335,-1.02667 -3.96001,-0.58666 -8.21336,-1.61333 V 69.685481 l 20.24005,-3.226674 v 36.080083 q 1.90667,-0.88 4.25334,-1.32 2.34668,-0.44 4.69335,-0.44 9.24002,0 15.25337,4.69334 6.01335,4.54668 8.94669,13.7867 3.08,9.24002 3.08,23.32005 0,12.61337 -3.66667,21.41339 -3.52001,8.80002 -10.56003,13.34669 -7.04001,4.40001 -17.3067,4.40001 z m -0.44001,-17.16004 q 3.81335,0 6.16002,-1.61333 2.49334,-1.76001 3.52001,-6.45335 1.17333,-4.84001 1.17333,-13.93337 0,-7.48001 -0.58666,-12.17336 -0.58667,-4.84001 -1.90668,-7.48002 -1.17333,-2.78667 -3.08,-3.81334 -1.76001,-1.17333 -4.40001,-1.17333 -1.46667,0 -2.78668,0.29333 -1.32,0.14667 -2.34667,0.73334 v 45.17343 q 1.02667,0.14667 2.05334,0.29334 1.02667,0.14666 2.2,0.14666 z"
         id="path1582" />
      <path
         d="m 359.5665,181.73907 q -9.97336,0 -16.72004,-3.66667 -6.60002,-3.66668 -9.97336,-11.14669 -3.22667,-7.48002 -3.22667,-18.77338 v -45.90677 h 20.24004 v 45.02677 q 0,6.30668 0.88001,10.12002 1.02666,3.81334 3.22667,5.57335 2.34667,1.61333 6.16001,1.61333 0.88001,0 1.90667,-0.14666 1.02667,-0.14667 2.05334,-0.29334 v -61.89347 h 20.24005 v 76.41351 q -6.16001,1.46667 -12.32003,2.2 -6.01335,0.88 -12.46669,0.88 z"
         id="path1584" />
      <path
         d="m 443.6068,182.32574 q -9.68002,0 -16.57337,-4.69334 -6.74668,-4.69335 -10.41336,-13.7867 -3.52001,-9.24002 -3.52001,-22.58672 0,-12.9067 3.66668,-22.00005 3.66667,-9.24002 10.56002,-14.08003 7.04002,-4.98668 16.57338,-4.98668 4.69334,0 8.50668,0.88 3.96001,0.88 7.62669,2.64001 l -3.96001,16.72004 q -2.20001,-1.32001 -4.40001,-1.90668 -2.20001,-0.73333 -4.69335,-0.73333 -6.01334,0 -9.38669,5.13334 -3.37334,4.98668 -3.37334,18.33338 0,8.80002 1.90667,13.93337 1.90668,5.13334 5.13335,7.33335 3.37334,2.2 7.48002,2.2 2.93334,0 4.84001,-0.44 1.90667,-0.44 3.81334,-1.32 l 2.64001,16.57337 q -3.08001,1.46667 -7.04002,2.05334 -3.96001,0.73333 -9.38669,0.73333 z"
         id="path1586" />
      <path
         d="m 512.10034,182.32574 q -9.24003,0 -15.84004,-4.84001 -6.60002,-4.84001 -10.12002,-13.93336 -3.37335,-9.24003 -3.37335,-22.29339 0,-13.05336 3.37335,-22.14672 3.52,-9.24002 10.12002,-14.08003 6.60001,-4.84001 15.84004,-4.84001 9.38668,0 15.84003,4.84001 6.60002,4.84001 9.97336,14.08003 3.52001,9.09336 3.52001,22.14672 0,13.05336 -3.52001,22.29339 -3.37334,9.09335 -9.97336,13.93336 -6.45335,4.84001 -15.84003,4.84001 z m 0,-17.45337 q 3.08,0 4.84001,-2.34667 1.76,-2.34668 2.49334,-7.48002 0.88,-5.28001 0.88,-13.7867 0,-8.50669 -0.88,-13.64003 -0.73334,-5.28001 -2.64001,-7.62669 -1.76,-2.34667 -4.69334,-2.34667 -2.93334,0 -4.84002,2.34667 -1.76,2.34668 -2.64,7.62669 -0.73334,5.13334 -0.73334,13.64003 0,8.50669 0.73334,13.7867 0.88,5.13334 2.64,7.48002 1.90668,2.34667 4.84002,2.34667 z"
         id="path1588" />
      <path
         d="m 575.60719,180.2724 v -76.41351 q 6.16002,-1.61333 12.17336,-2.34667 6.16002,-0.73333 12.61337,-0.73333 10.12002,0 16.72004,3.66667 6.60001,3.66668 9.82669,11.14669 3.37334,7.48002 3.37334,18.77338 v 45.90677 h -20.24005 v -45.02677 q 0,-6.45335 -1.02667,-10.12002 -0.88,-3.81334 -3.22667,-5.42668 -2.20001,-1.76 -6.01335,-1.76 -0.88,0 -1.90667,0.14666 -0.88,0 -2.05334,0.29334 v 61.89347 z"
         id="path1590" />
      <path
         d="M 96.812561,363.60616 V 263.43259 q 6.453349,-1.61333 12.173359,-2.2 5.72002,-0.73334 11.88003,-0.73334 17.45337,0 26.98673,8.94669 9.68002,8.80002 9.68002,24.93339 0,10.26669 -4.40001,18.04004 -4.40001,7.62669 -12.46669,11.88003 -8.06669,4.25335 -19.06671,4.25335 h -3.96001 v 35.05341 z M 117.63928,310.9527 h 3.66667 q 5.13335,0 8.21335,-1.76 3.22668,-1.76 4.69335,-5.42668 1.61334,-3.66667 1.61334,-9.38669 0,-5.42668 -1.61334,-8.94669 -1.46667,-3.52 -4.54668,-5.28001 -3.08001,-1.76 -7.92002,-1.76 -1.02667,0 -2.2,0.14667 -1.17334,0.14666 -1.90667,0.44 z"
         id="path1592" />
      <path
         d="m 213.26612,365.6595 q -9.24002,0 -15.84004,-4.84001 -6.60001,-4.84001 -10.12002,-13.93337 -3.37334,-9.24002 -3.37334,-22.29338 0,-13.05337 3.37334,-22.14672 3.52001,-9.24002 10.12002,-14.08003 6.60002,-4.84002 15.84004,-4.84002 9.38669,0 15.84004,4.84002 6.60001,4.84001 9.97335,14.08003 3.52001,9.09335 3.52001,22.14672 0,13.05336 -3.52001,22.29338 -3.37334,9.09336 -9.97335,13.93337 -6.45335,4.84001 -15.84004,4.84001 z m 0,-17.45338 q 3.08001,0 4.84001,-2.34667 1.76,-2.34667 2.49334,-7.48002 0.88,-5.28001 0.88,-13.78669 0,-8.50669 -0.88,-13.64004 -0.73334,-5.28001 -2.64001,-7.62668 -1.76,-2.34667 -4.69334,-2.34667 -2.93334,0 -4.84001,2.34667 -1.76001,2.34667 -2.64001,7.62668 -0.73333,5.13335 -0.73333,13.64004 0,8.50668 0.73333,13.78669 0.88,5.13335 2.64001,7.48002 1.90667,2.34667 4.84001,2.34667 z"
         id="path1594" />
      <path
         d="m 276.77298,363.60616 v -74.36017 q 4.40001,-2.20001 11.88003,-3.66668 7.48002,-1.46667 14.6667,-1.46667 3.22668,0 6.16002,0.29334 2.93334,0.29333 5.28001,0.73333 2.49334,0.44 4.10668,1.17334 l -3.66668,16.57337 q -2.2,-0.73334 -4.54668,-1.17334 -2.34667,-0.44 -4.84001,-0.44 -2.78667,0 -4.98668,0.29334 -2.05333,0.14666 -3.81334,0.88 v 61.16014 z"
         id="path1596" />
      <path
         d="m 362.27999,365.6595 q -8.65336,0 -14.08003,-3.52001 -5.42668,-3.52001 -7.92002,-10.56002 -2.49334,-7.04002 -2.49334,-17.30671 V 266.9526 l 20.24005,-3.22667 v 21.85338 h 18.62671 v 16.57337 h -18.62671 v 33.29341 q 0,4.40001 0.88,7.18669 1.02667,2.78667 2.78667,4.10667 1.90667,1.32001 4.54668,1.32001 2.64,0 4.69334,-0.44 2.05334,-0.58667 4.10668,-1.76001 l 3.08001,15.5467 q -2.49334,1.90668 -7.04002,3.08001 -4.54668,1.17334 -8.80002,1.17334 z"
         id="path1598" />
      <path
         d="m 432.82685,365.07283 q -9.97336,0 -16.72004,-3.66668 -6.60002,-3.66667 -9.97336,-11.14669 -3.22667,-7.48002 -3.22667,-18.77337 v -45.90678 h 20.24004 v 45.02677 q 0,6.30668 0.88001,10.12003 1.02666,3.81334 3.22667,5.57334 2.34667,1.61334 6.16001,1.61334 0.88001,0 1.90667,-0.14667 1.02667,-0.14666 2.05334,-0.29333 v -61.89348 h 20.24005 v 76.41351 q -6.16001,1.46667 -12.32003,2.20001 -6.01335,0.88 -12.46669,0.88 z"
         id="path1600" />
      <path
         d="m 513.34713,391.17956 q -6.74668,0 -12.32003,-0.88 -5.42668,-0.88001 -9.82669,-2.78668 l 3.66668,-16.8667 q 3.81334,1.76 7.62668,2.64 3.81334,0.88 7.62668,0.88 3.96001,-0.14666 6.74669,-1.76 2.78667,-1.46667 4.25334,-4.40001 1.46667,-2.78667 1.46667,-6.60002 v -2.49333 q -2.05334,1.02666 -4.54668,1.46667 -2.34667,0.29333 -4.69334,0.29333 -9.09336,0 -15.1067,-4.25334 -6.01335,-4.40001 -8.94669,-13.05337 -2.93334,-8.80002 -2.93334,-22.00005 0,-12.17336 3.52001,-20.38671 3.66667,-8.36002 10.70669,-12.61336 7.04002,-4.25335 17.30671,-4.25335 6.45334,0 12.46669,0.73334 6.01335,0.73333 12.4667,2.34667 v 69.37349 q 0,15.54671 -7.04002,25.08006 -7.04002,9.53336 -22.44005,9.53336 z m 4.10667,-47.66678 q 1.76001,0 2.93334,-0.14667 1.32001,-0.29333 2.20001,-0.88 v -40.62676 q -1.02667,-0.29333 -2.20001,-0.44 -1.17333,-0.14667 -2.78667,-0.14667 -2.93334,0 -5.28001,1.76001 -2.34667,1.61333 -3.66668,6.01334 -1.17333,4.25335 -1.17333,12.32003 0,6.60002 0.58667,11.00003 0.58666,4.25334 1.76,6.74668 1.17334,2.34667 3.08001,3.37334 1.90667,1.02667 4.54667,1.02667 z"
         id="path1602" />
      <path
         d="m 599.58734,365.07283 q -8.80003,0 -14.96004,-2.78667 -6.16001,-2.93334 -9.38669,-8.50669 -3.08001,-5.57335 -3.08001,-13.49336 0,-7.92002 3.08001,-13.20003 3.08001,-5.42668 8.65336,-8.21336 5.72001,-2.78667 13.20003,-2.78667 1.76,0 3.81334,0.14667 2.05334,0 3.66667,0.29333 v -3.52001 q 0,-4.54667 -1.46667,-7.18668 -1.32,-2.78667 -4.25334,-3.96001 -2.78667,-1.17334 -7.33335,-1.17334 -2.49334,0 -5.28001,0.44 -2.78668,0.44001 -6.16002,1.61334 l -2.78667,-16.13337 q 3.37334,-1.17334 8.36002,-2.05334 4.98668,-1.02667 9.53335,-1.02667 8.65336,0 15.10671,3.22668 6.60001,3.08001 10.26669,9.82669 3.66667,6.74668 3.66667,17.3067 v 47.81345 q -6.16001,1.76 -12.61336,2.49334 -6.45335,0.88 -12.02669,0.88 z m 0.88,-15.1067 q 1.32,0 2.34667,-0.14667 1.17334,-0.14667 1.76,-0.29333 v -18.77338 q -0.88,-0.29333 -2.05333,-0.44 -1.02667,-0.14667 -2.20001,-0.14667 -2.78667,0 -4.69334,1.17334 -1.90668,1.02667 -2.78668,3.37334 -0.88,2.2 -0.88,5.57335 0,4.98667 2.05334,7.33335 2.2,2.34667 6.45335,2.34667 z"
         id="path1604" />
      <path
         d="m 685.82743,365.6595 q -9.24002,-0.29334 -15.40003,-3.08001 -6.01335,-2.78667 -9.09336,-8.21335 -2.93334,-5.57335 -2.93334,-13.93337 v -87.41353 l 20.24005,-3.22668 v 90.34688 q 0,4.69334 2.05334,6.74668 2.05333,2.05334 7.48001,2.34667 z"
         id="path1606" />
      <path
         d="m 229.54606,546.93992 q 0,-0.73334 0,-1.32001 0,-0.73333 0,-1.46667 0,-9.38669 2.20001,-17.3067 2.34667,-7.92002 6.01334,-14.81337 3.66668,-7.04002 7.92002,-13.05337 4.25335,-6.16001 7.33335,-10.85335 3.22668,-4.84002 4.84001,-9.09336 1.76001,-4.25334 1.76001,-8.36002 0,-5.57334 -2.78668,-7.77335 -2.78667,-2.2 -7.04001,-2.2 -2.49334,0 -4.69335,0.73333 -2.05333,0.58667 -4.10667,1.90667 -2.05334,1.17334 -4.10668,2.93334 l -9.09335,-13.93336 q 3.52001,-2.93334 7.62668,-4.84002 4.10668,-2.05333 8.80002,-3.08 4.84001,-1.17334 10.12003,-1.17334 12.17336,0 19.21337,6.89335 7.18669,6.89335 7.18669,18.04004 0,6.01335 -2.05334,11.5867 -1.90667,5.42668 -5.42668,11.14669 -3.52001,5.57334 -8.21335,12.32003 -4.10668,5.86668 -6.74669,10.26669 -2.49333,4.25334 -3.96,8.21335 -1.32001,3.81334 -2.05334,8.50669 h 29.48007 v 16.72004 z"
         id="path1608" />
      <path
         d="m 338.51976,548.99325 q -9.82669,0 -15.84003,-5.28001 -6.01335,-5.42668 -8.80002,-17.01337 -2.78668,-11.73336 -2.78668,-30.65341 0,-18.92004 2.78668,-30.50673 2.78667,-11.5867 8.80002,-16.86671 6.01334,-5.42668 15.84003,-5.42668 14.52004,0 20.97339,12.4667 6.45334,12.32003 6.45334,40.33342 0,27.86674 -6.45334,40.4801 -6.45335,12.46669 -20.97339,12.46669 z m 0,-17.45337 q 2.49334,0 3.81335,-2.78667 1.46667,-2.93334 1.90667,-10.56003 0.58667,-7.77335 0.58667,-22.14672 0,-14.37336 -0.58667,-22.00005 -0.44,-7.62668 -1.90667,-10.41335 -1.32001,-2.93334 -3.81335,-2.93334 -2.49334,0 -3.96001,2.93334 -1.32,2.78667 -1.90667,10.41335 -0.44,7.62669 -0.44,22.00005 0,14.37337 0.44,22.14672 0.58667,7.62669 1.90667,10.56003 1.46667,2.78667 3.96001,2.78667 z"
         id="path1610" />
      <path
         d="m 396.16001,546.93992 q 0,-0.73334 0,-1.32001 0,-0.73333 0,-1.46667 0,-9.38669 2.20001,-17.3067 2.34667,-7.92002 6.01335,-14.81337 3.66667,-7.04002 7.92001,-13.05337 4.25335,-6.16001 7.33335,-10.85335 3.22668,-4.84002 4.84002,-9.09336 1.76,-4.25334 1.76,-8.36002 0,-5.57334 -2.78667,-7.77335 -2.78668,-2.2 -7.04002,-2.2 -2.49334,0 -4.69334,0.73333 -2.05334,0.58667 -4.10668,1.90667 -2.05334,1.17334 -4.10668,2.93334 l -9.09335,-13.93336 q 3.52001,-2.93334 7.62668,-4.84002 4.10668,-2.05333 8.80002,-3.08 4.84002,-1.17334 10.12003,-1.17334 12.17336,0 19.21338,6.89335 7.18668,6.89335 7.18668,18.04004 0,6.01335 -2.05334,11.5867 -1.90667,5.42668 -5.42668,11.14669 -3.52001,5.57334 -8.21335,12.32003 -4.10668,5.86668 -6.74668,10.26669 -2.49334,4.25334 -3.96001,8.21335 -1.32001,3.81334 -2.05334,8.50669 h 29.48007 v 16.72004 z"
         id="path1612" />
      <path
         d="m 498.9737,548.99325 q -4.54668,0 -8.65335,-0.58666 -3.96001,-0.58667 -7.33335,-1.61334 -3.22668,-1.17334 -5.72002,-2.78667 l 4.98668,-16.42671 q 2.78668,1.90667 6.60002,2.93334 3.81334,1.02667 7.77335,1.02667 4.54668,0 7.48002,-1.61334 3.08,-1.76 4.54667,-4.98668 1.61334,-3.22667 1.61334,-8.06668 0,-5.13335 -1.61334,-8.36002 -1.61333,-3.37334 -4.84001,-4.98668 -3.22667,-1.61334 -8.21335,-1.61334 h -7.18668 v -16.57337 h 7.62668 q 3.96001,0 6.89335,-1.46667 2.93334,-1.61333 4.40001,-4.54668 1.61334,-2.93334 1.61334,-6.74668 0,-3.66667 -1.32,-6.30668 -1.32001,-2.64 -3.96001,-4.10667 -2.64001,-1.46667 -6.60002,-1.46667 -2.78667,0 -5.57335,0.88 -2.64,0.73333 -5.86668,2.64 l -7.18668,-14.2267 q 4.40001,-3.37334 10.56003,-4.98667 6.16001,-1.76001 13.49336,-1.76001 8.21335,0 14.37337,3.08001 6.30668,3.08001 9.68002,8.80002 3.52001,5.57335 3.52001,13.49336 0,8.50669 -3.22668,14.6667 -3.22667,6.16002 -9.82669,9.68003 5.28002,2.78667 8.36002,6.30668 3.22668,3.37334 4.54668,7.77335 1.46667,4.40001 1.46667,10.41336 0,9.68002 -3.96001,16.72004 -3.96001,7.04001 -11.29336,11.00002 -7.18668,3.81334 -17.16004,3.81334 z"
         id="path1614" />
    </g>
  </g>
</svg>
